{
    "code": 1,
    "msg": "数据返回成功！",
    "data": {
        "page": 1,
        "totalCount": 87145,
        "totalPage": 8715,
        "limit": 20,
        "list": [
            {
                "content": "课上，小雯觉得时间很难熬。　　就开始敲桌子打板凳，还念念有词道，“真是渡分如年啊！”　　然后，就问坐在旁边的小佩：“还有几分钟下课？”　　小佩看了看表，淡淡地说：“还有一年。”",
                "updateTime": "2020-06-18 23:59:24"
            },
            {
                "content": "听说你又被开除啦? 是啊!老板娘怀孕了,就把我开除了～我去!老板娘怀孕开除你!你和她肚子的里孩子有什么关系啊? 就是怕有关系才把我开除的，老板娘说,怀孕的时候天天见我的样子,怕孩子生出来长的像我一样丑,就把我开除了……",
                "updateTime": "2020-06-18 23:59:23"
            },
            {
                "content": "和女朋友分手，她舍不得我，说再给我做一顿饭。晚上去她家，她给我做的黄瓜花生拌的凉菜，煮的螃蟹，板栗炖牛肉，还做了个羊肉汤，之后还准备了西瓜，还给我剥桔子，她说看着我都吃了，就满足了，看她这么用心，我就都吃了，那么现在到底分，还是 ？",
                "updateTime": "2020-06-18 23:59:23"
            },
            {
                "content": "甲：”你怎么总是在晚上九点后才和女朋友相约，难道真像作家们所说的“爱情需要黑暗……。”乙：”那倒不是，只因为九点后街上的商店都关了门呀。”",
                "updateTime": "2020-06-18 23:59:22"
            },
            {
                "content": "夜深了，两个男子走在路上开始谈论起鬼来。其中一个说：“有些人活着的时候就够吓人的了，死了之后还要吓人。听说天黑了以后这条街上会有个鬼出现，那个鬼长得丑死了，有好几个胆小的女孩子都被他吓晕过，并且他以吓人为乐。”这时，突然从他们后面传出话来：“是哪个家伙在说我的坏话？”",
                "updateTime": "2020-06-18 23:59:21"
            },
            {
                "content": "儿子上幼儿园时交了个女盆友；直到上小学一年级还是藕断丝连，我怕影响到学习，劝其不要来往。一年后他俩还在交往，两人每次考试都是100、100的！！！",
                "updateTime": "2020-06-18 23:59:20"
            },
            {
                "content": "出月子后把头发剪了，因为长胖了把老公衣服拿来先穿着准备上街买衣服。到衣服店。导购马上迎了上来:你好，你是给女朋友买衣服吗?我:我自己穿的。导购一脸茫然:大哥我们这是女装店。",
                "updateTime": "2020-06-18 23:59:17"
            },
            {
                "content": "今天下的雪，让人感觉浪漫又让人冻的发嗖。进门看到为家忙碌的妻子，心理十分感动，于是走到妻子旁边，轻声细语的附在老婆耳旁说到，亲爱的，要不要来点刺激的！！\r\n之见老婆红着脸说声讨厌。在老婆默认的情况下，我把在冰天雪地骑了五里路没有带手套的手伸进了她的后背！！！",
                "updateTime": "2020-06-18 23:59:16"
            },
            {
                "content": "和闺蜜一起出门，闺蜜身着一袭白裙，很是惹眼。我开玩笑道:“呦,好漂亮啊,跟个公主似的。”闺蜜脸上顿时笑开了花:“真的吗,是像白雪公主吗?”我坏笑道:“不,像令月公主!”闺蜜一怔：“令月公主是谁?\"“令月公主是大唐第一美女。\"看到闺蜜打开了手机百度，我立刻跑开了",
                "updateTime": "2020-06-18 23:59:16"
            },
            {
                "content": "石阶问佛像：“我们都是石头，凭什么你受人膜拜,我却遭人践踏？”\r\n佛像笑到：你只挨了四刀就成石阶，我却挨了千刀万剐才有现在的模样，想成功就要历经磨烂。”\r\n过几天石阶带了个同伴找到佛像：“这是我表亲，切菜板，您也给他说到说到。”佛像:……",
                "updateTime": "2020-06-18 23:59:15"
            },
            {
                "content": "本人工地狗一枚，一日给老妈打电话问到老妈你干什么呢？老妈答到：给你攒钱娶媳妇呢！\r\n我回到：果然世上只有妈妈好，爱死你了老妈！突然听老妈说别动！是三条不？胡了！！！ 世上只有妈妈好！！！",
                "updateTime": "2020-06-18 23:59:14"
            },
            {
                "content": "一天，小军到便利商店买安全套，老板以一股狐疑的眼光看着他。\r\n小军急忙解释道：“那是买给我女朋友的生日礼物！”\r\n老板随即好心的问：“那要不要包起来？”\r\n小军说：“不用了，那就是用来包礼物的。”",
                "updateTime": "2020-06-18 23:59:13"
            },
            {
                "content": "朋友是转业兵，在我们这消防上开车，技术特别好。\r\n今天好不容易求着跟他学学，第一次见他开车，老司机就是不一样，又快又稳，连过多个红绿灯都不带停的。\r\n突然，朋友浑身抽搐了一下：“卧槽，我特么忘了我开的是自己的车！”",
                "updateTime": "2020-06-18 23:59:13"
            },
            {
                "content": "上中学时一哥们喝醉了酒，学校给了他一个处分，老师问他为什么喝这么多酒。他答道：“最近这几天非常倒霉，干什么都不顺，为借酒消愁，就偷偷买了一瓶啤酒，本来喝一瓶也醉不了，结果却中了再来一瓶，我一激动，就想快点享受这来之不易的运气，结果就醉了！”",
                "updateTime": "2020-06-18 23:59:09"
            },
            {
                "content": "今天小电驴从材料市场，回家路上，看见一骑车女神，遂各种尾.随，\r\n时前时后，各种想引起注意，这不是高.潮，在我安全护送女神回家后，\r\n我开始朝着正确的方向回家了，有电，任性。",
                "updateTime": "2020-06-18 23:59:09"
            },
            {
                "content": "二货基友的对话… 我：“可不可以的诚实的告诉我，你的年薪是多少？” 基友：“30万。” 我：“你诚实了吗？” 基友：“我已经乘十了。” 妈蛋，“你这理解能力，活该做公务员。“ ",
                "updateTime": "2020-06-18 23:59:08"
            },
            {
                "content": "中午和男票散步，感觉天气晴好，身边有他很是浪漫，于是害羞的把额头向他嘴边凑了过去 想索一个额吻，谁知道这货犹豫了一下，然后身体微微倾斜 用自己的大脑门子直直的duǐ了上来，差点没给老娘我磕出脑震荡，不说了现在看手机还有重影。",
                "updateTime": "2020-06-18 23:59:07"
            },
            {
                "content": "今天早上上班，看见前面有个短裙低胸装的妹子，一边走路一边玩手机，我说：“妹子，你前面有沟啊，挺深啊”，妹子捂住胸口说“流氓”，然后就掉沟里了，现在的人都怎么了，我可是好心提醒的啊！",
                "updateTime": "2020-06-18 23:59:06"
            },
            {
                "content": "朋友问我苹果和小米的区别是什么。 我说：“打开语音功能说我要吃屎，小米会说‘你口味真重！’” 朋友：“那苹果呢！” 我说：“苹果会告诉你附近的厕所在哪里！” 怎么，你特么真的想让我去吃啊! ",
                "updateTime": "2020-06-18 23:59:06"
            },
            {
                "content": "在酒吧喝醉了，我拿起电话翻开电话簿，想给朋友打一个电话。 但不知道打给谁，看着这些陌生的名字，我突然感到自己连一知心朋友都没有，很沮丧。 第二天早上，竟然发现手机不是自己的!",
                "updateTime": "2020-06-18 23:59:03"
            }
        ]
    }
}
